########################################################################### 
################################### ALL ################################### 
########################################################################### 
Test for normality 
# A tibble: 60 x 9
# Groups:   Complexity, Control [10]
   Subject Control  Complexity Expertise UseGLM Uselow Usehigh  Mean Zscore
   <chr>   <chr>    <chr>      <chr>      <int>  <int>   <int> <dbl>  <dbl>
 1 Sub07   none     low        novice         1      1       1 1059. -0.504
 2 Sub07   none     high       novice         1      1       1 1033. -1.24 
 3 Sub07   waypoint low        novice         1      1       1 1094.  0.469
 4 Sub07   waypoint high       novice         1      1       1 1116.  1.10 
 5 Sub07   directe~ low        novice         1      1       1 1013. -1.81 
 6 Sub07   directe~ high       novice         1      1       1 1070. -0.213
 7 Sub07   sharede~ low        novice         1      1       1 1102.  0.702
 8 Sub07   sharede~ high       novice         1      1       1 1087.  0.275
 9 Sub07   autoerg~ low        novice         1      1       1 1125.  1.36 
10 Sub07   autoerg~ high       novice         1      1       1 1072. -0.140
# ... with 50 more rows
…
