########################################################################### 
################################### ALL ################################### 
########################################################################### 
Test for normality 
# A tibble: 220 x 9
# Groups:   Complexity, Control [10]
   Subject Control  Complexity Expertise UseGLM Uselow Usehigh  Mean Zscore
   <chr>   <chr>    <chr>      <chr>      <int>  <int>   <int> <dbl>  <dbl>
 1 Sub01   none     low        expert         1      1       1  735.  1.04 
 2 Sub01   none     high       expert         1      1       1  732.  0.743
 3 Sub01   waypoint low        expert         1      1       1  724. -0.228
 4 Sub01   waypoint high       expert         1      1       1  715. -1.27 
 5 Sub01   directe~ low        expert         1      1       1  728.  0.327
 6 Sub01   directe~ high       expert         1      1       1  718. -0.945
 7 Sub01   sharede~ low        expert         1      1       1  715. -1.30 
 8 Sub01   sharede~ high       expert         1      1       1  720. -0.639
 9 Sub01   autoerg~ low        expert         1      1       1  736.  1.17 
10 Sub01   autoerg~ high       expert         1      1       1  735.  1.11 
# ... with 210 more rows
…
