################################################################################ 
###############               All Experimental Factors            ############## 
####### Complexity=(low/high buiding density) Control=5 control paradigms ###### 
################################################################################ 
Test for normality 
# A tibble: 60 × 22
# Groups:   Complexity, Control [10]
   Subject Control Compl…¹ Trial Perweek Lifet…² Exper…³ Lives Treas…⁴ Input Score Diffi…⁵ RR_Mean RR_Zs…⁶ MDP_r
   <fct>   <fct>   <fct>   <fct>   <dbl>   <int> <fct>   <dbl>   <dbl> <dbl> <dbl>   <dbl>   <dbl>   <dbl> <dbl>
 1 Sub07   none    low     tria…       0     200 novice      6       3     0    21       0   1059.  -0.532   NaN
 2 Sub07   waypoi… low     tria…       0     200 novice      6       2    10    20       0   1094.   0.494   NaN
 3 Sub07   direct… low     tria…       0     200 novice      8       3     8    27       0   1013.  -1.91    NaN
 4 Sub07   shared… low     tria…       0     200 novice      7       3     7    24       0   1102.   0.739   NaN
 5 Sub07   autoer… low     tria…       0     200 novice      7       3     0    24       0   1125.   1.43    NaN
 6 Sub07   none    high    tria…       0     200 novice      6       2     0    20       0   1033.  -1.31    NaN
 7 Sub07   waypoi… high    tria…       0     200 novice      5       4     6    19       0   1116.   1.16    NaN
 8 Sub07   direct… high    tria…       0     200 novice      6       3     6    21       0   1070.  -0.225   NaN
 9 Sub07   shared… high    tria…       0     200 novice      8       0     0    24       0   1088.   0.308   NaN
10 Sub07   autoer… high    tria…       0     200 novice      6       3     0    21       0   1072.  -0.162   NaN
# … with 50 more rows, 7 more variables: Perc_regret_.1 <dbl>, Include_Input <fct>, Include_Score <fct>,
#   Include_Difficulty <fct>, Include_RR <fct>, Include_MDP_r <fct>, Include_POMDP_d <fct>, and abbreviated
#   variable names ¹​Complexity, ²​Lifetime, ³​Expertise, ⁴​Treasure, ⁵​Difficulty, ⁶​RR_Zscore
# ℹ Use `print(n = ...)` to see more rows, and `colnames()` to see all variable names
…
