################################################################################ 
###############               All Experimental Factors            ############## 
####### Complexity=(low/high buiding density) Control=5 control paradigms ###### 
################################################################################ 
Test for normality 
# A tibble: 230 × 22
# Groups:   Complexity, Control [10]
   Subject Control Compl…¹ Trial Perweek Lifet…² Exper…³ Lives Treas…⁴ Input Score Diffi…⁵ RR_Mean RR_Zs…⁶ MDP_r
   <fct>   <fct>   <fct>   <fct>   <dbl>   <int> <fct>   <dbl>   <dbl> <dbl> <dbl>   <dbl>   <dbl>   <dbl> <dbl>
 1 Sub01   none    low     tria…      35   41860 expert      7       5     0    26     9      735.   1.09      6
 2 Sub01   waypoi… low     tria…      35   41860 expert      7       4     7    25    10      724.  -0.244     6
 3 Sub01   direct… low     tria…      35   41860 expert      7       4     6    25     8      728.   0.343     0
 4 Sub01   shared… low     tria…      35   41860 expert      8       5     4    29     9      715.  -1.38      0
 5 Sub01   autoer… low     tria…      35   41860 expert      8       5     0    29    10      736.   1.23      6
 6 Sub01   none    high    tria…      35   41860 expert      8       4     0    28    10      732.   0.782     0
 7 Sub01   waypoi… high    tria…      35   41860 expert      7       3     8    24    10      715.  -1.35      6
 8 Sub01   direct… high    tria…      35   41860 expert      6       3     6    21     8      718.  -0.974     3
 9 Sub01   shared… high    tria…      35   41860 expert      8       5     3    29     7.5    720.  -0.678     3
10 Sub01   autoer… high    tria…      35   41860 expert      6       5     0    23    10      735.   1.17      0
# … with 220 more rows, 7 more variables: Perc_regret_.1 <dbl>, Include_Input <fct>, Include_Score <fct>,
#   Include_Difficulty <fct>, Include_RR <fct>, Include_MDP_r <fct>, Include_POMDP_d <fct>, and abbreviated
#   variable names ¹​Complexity, ²​Lifetime, ³​Expertise, ⁴​Treasure, ⁵​Difficulty, ⁶​RR_Zscore
# ℹ Use `print(n = ...)` to see more rows, and `colnames()` to see all variable names
…
